Statistically Significant Shakespeare
…
---

## Two-Word Phrases

Top 10 two-word phrases that appear in Hamlet (stop words removed)

```
## # A tibble: 2,274 x 3
##    word1     word2       n
##    <chr>     <chr>   <int>
##  1 father    lost        4
##  2 father's  death       4
##  3 adieu     adieu       3
##  4 beneath   swear       3
##  5 bloody    deed        3
##  6 christian burial      3
##  7 dead      body        3
##  8 dear      lord        3
##  9 drown'd   drown'd     3
## 10 honour'd  lord        3
## # ... with 2,264 more rows
```
…
